﻿
Renamed 'GetGuess' to 'GetGuessAndPrintBack':
---------------------------------------------
f:\Repos\Unreal\Section_02\BullCowGame\main.cpp(6, 8)
f:\Repos\Unreal\Section_02\BullCowGame\main.cpp(14, 2)
f:\Repos\Unreal\Section_02\BullCowGame\main.cpp(29, 8)
